Data Analysis
…
covid_papers
## # A tibble: 148,916 x 19
##    `_id`            pmid  pmcid doi   title source year_pub month_pub creation  
##    <chr>            <chr> <chr> <chr> <chr> <chr>  <chr>    <chr>     <date>    
##  1 5f69d6fa65a250f~ 3283~ PMC7~ 10.1~ The ~ MED    2020     null      2020-08-25
##  2 5f69d6fa65a250f~ 3219~ PMC7~ 10.1~ Hypo~ MED    2020     null      2020-03-21
##  3 5f69d6fa65a250f~ 3277~ PMC7~ 10.1~ The ~ MED    2020     null      2020-08-12
##  4 5f69d6fa65a250f~ 3273~ PMC7~ 10.1~ A co~ MED    2020     null      2020-07-31
##  5 5f69d6fa65a250f~ null  null  10.2~ Viri~ PPR    2020     null      2020-08-16
##  6 5f69d6fa65a250f~ null  PMC7~ null  Inte~ PMC    2020     null      2020-09-13
##  7 5f69d6fa65a250f~ 3239~ PMC7~ 10.1~ A gl~ MED    2020     null      2020-05-13
##  8 5f69d6fa65a250f~ 3225~ PMC7~ 10.1~ COVI~ MED    2020     null      2020-04-08
##  9 5f69d6fa65a250f~ 3272~ PMC7~ 10.1~ The ~ MED    2020     null      2020-07-29
## 10 5f69d6fa65a250f~ 3219~ PMC7~ 10.1~ Labo~ MED    2020     null      2020-03-21
## # i 148,906 more rows
## # i 10 more variables: authors_gender <chr>, journal <chr>, language <chr>,
## #   pubmodel <chr>, pubtype <chr>, mesh <chr>, keywords <chr>, cited <dbl>,
## #   has_data <chr>, oa <chr>
…
Dplyr helper functions for the summarise() function include first(), last(), n(), nth(), and n_distinct(). The data.table package also includes first(), last(), and uniqueN().

Modifiying

When it comes to modifying columns, data.table allows for the use of the column assignment symbol := to modify columns by reference without creating a copy. With dplyr, the results must be assigned.

# R using Tibbles

cp_tibble <- cp_tibble %>% rowwise() %>% mutate(oa = ifelse(oa == 'Y',1,0), log_cited = log(cited + 1))

# Create one column and remove the others
transmute(cp_tibble, title_lower = tolower(title))
## # A tibble: 148,913 x 1
## # Rowwise: 
##    title_lower                                                                  
##    <chr>                                                                        
##  1 the pathophysiology, diagnosis and treatment of corona virus disease 2019 (c~
##  2 hypothesis for potential pathogenesis of sars-cov-2 infection-a review of im~
##  3 the outbreak of the novel severe acute respiratory syndrome coronavirus 2 (s~
##  4 a comparative overview of covid-19, mers and sars: review article.           
##  5 virion structure and mechanism of propagation of coronaviruses including sar~
##  6 interaction of sars-cov-2 and other coronavirus with ace (angiotensin-conver~
##  7 a global treatments for coronaviruses including covid-19.                    
##  8 covid-19 infection: origin, transmission, and characteristics of human coron~
##  9 the kidney, covid-19, and the chemokine network: an intriguing trio.         
## 10 laboratory diagnosis of emerging human coronavirus infections - the state of~
## # i 148,903 more rows
…
The dplyr::group_by() function and the corresponding by and keyby statements in data.table allow for the manipulation of each group of observations and combining the results. The main difference between by and keyby is that keyby orders the results and creates a key that allows for faster subsetting (cf. the indexing and keys section). Below, we use one or the other arbitrarily.

The group_by() function takes an existing tibble and converts it into a grouped tibble where operations will always be performed “by group”. Using ungroup() removes grouping. With data.table, by is always used on the fly.

Note that it is possible to reorder the arguments in data.table: cp_datatable[i, j, by] <=> cp_datatable[i, by, j]. This is done below to better highlight the similarity with dplyr.

It’s worth noting that group_by() and by in data.table perform the same task of grouping the data by certain variable(s) and keyby is used to enhance the performance of data.table by creating keys on certain columns, also note that you have to use ungroup() function to remove the grouping in dplyr while in data.table you don’t need to do that.

# R using Tibbles
cp_tibble <-  as_tibble(covid_papers) %>% filter(pmid!='null')

cp_tibble %>%
  group_by(year_pub) %>%
  summarise(nb_language = length(unique(language)))
## # A tibble: 113 x 2
##    year_pub nb_language
##    <chr>          <int>
##  1 1830               1
##  2 1832               1
##  3 1833               1
##  4 1836               1
##  5 1842               1
##  6 1845               1
##  7 1857               1
##  8 1864               1
##  9 1874               1
## 10 1876               1
## # i 103 more rows

# By several groups
cp_tibble %>%
  group_by(year_pub, source) %>%
  summarise(mean_cited = mean(cited))
## `summarise()` has grouped output by 'year_pub'. You can override using the
## `.groups` argument.
## # A tibble: 113 x 3
## # Groups:   year_pub [113]
##    year_pub source mean_cited
##    <chr>    <chr>       <dbl>
##  1 1830     MED             0
##  2 1832     MED             0
##  3 1833     MED             0
##  4 1836     MED             0
##  5 1842     MED             0
##  6 1845     MED             0
##  7 1857     MED             0
##  8 1864     MED             0
##  9 1874     MED             0
## 10 1876     MED             0
## # i 103 more rows

# Assigning column name in by
cp_tibble %>%
  group_by(PY = as.numeric(year_pub)) %>%
  summarise(sum_cited = sum(cited))
## # A tibble: 113 x 2
##       PY sum_cited
##    <dbl>     <dbl>
##  1  1830         0
##  2  1832         0
##  3  1833         0
##  4  1836         0
##  5  1842         0
##  6  1845         0
##  7  1857         0
##  8  1864         0
##  9  1874         0
## 10  1876         0
## # i 103 more rows
…
cp_tibble %>%
  group_by(source) %>%
  group_size() # returns a vector
## [1] 113917

# Add a column with number of observations for each group
add_count(cp_tibble, year_pub) %>% select(year_pub,n)
## # A tibble: 113,917 x 2
##    year_pub     n
##    <chr>    <int>
##  1 2020     63760
##  2 2020     63760
##  3 2020     63760
##  4 2020     63760
##  5 2020     63760
##  6 2020     63760
##  7 2020     63760
##  8 2020     63760
##  9 2020     63760
## 10 2020     63760
## # i 113,907 more rows
…
# R using data.table

cp_datatable[, Grp := .GRP, by = .(PY,  language)][]
cp_datatable[, Grp := NULL] # delete for consistency

Get row number of observation by group

# R using Tibbles
cp_tibble %>%
  group_by(PY) %>%
  mutate(cur_group_rows())
## # A tibble: 113,917 x 22
## # Groups:   PY [113]
##    `_id`            pmid  pmcid doi   title source year_pub month_pub creation  
##    <chr>            <chr> <chr> <chr> <chr> <chr>  <chr>    <chr>     <date>    
##  1 5f69d6fa65a250f~ 3283~ PMC7~ 10.1~ The ~ MED    2020     null      2020-08-25
##  2 5f69d6fa65a250f~ 3219~ PMC7~ 10.1~ Hypo~ MED    2020     null      2020-03-21
##  3 5f69d6fa65a250f~ 3277~ PMC7~ 10.1~ The ~ MED    2020     null      2020-08-12
##  4 5f69d6fa65a250f~ 3273~ PMC7~ 10.1~ A co~ MED    2020     null      2020-07-31
##  5 5f69d6fa65a250f~ 3239~ PMC7~ 10.1~ A gl~ MED    2020     null      2020-05-13
##  6 5f69d6fa65a250f~ 3225~ PMC7~ 10.1~ COVI~ MED    2020     null      2020-04-08
##  7 5f69d6fa65a250f~ 3272~ PMC7~ 10.1~ The ~ MED    2020     null      2020-07-29
##  8 5f69d6fa65a250f~ 3219~ PMC7~ 10.1~ Labo~ MED    2020     null      2020-03-21
##  9 5f69d6fa65a250f~ 3265~ PMC7~ 10.1~ The ~ MED    2020     null      2020-07-14
## 10 5f69d6fa65a250f~ 3273~ PMC7~ 10.1~ Cycl~ MED    2020     null      2020-08-01
## # i 113,907 more rows
## # i 13 more variables: authors_gender <chr>, journal <chr>, language <chr>,
## #   pubmodel <chr>, pubtype <chr>, mesh <chr>, keywords <chr>, cited <dbl>,
## #   has_data <chr>, oa <chr>, PY <dbl>, log_cited <dbl>,
## #   `cur_group_rows()` <int>
#cp_tibble %>%
#  group_by(PY) %>%
#  group_data() %>%
#  tidyr::unnest(.rows)
cp_tibble %>%
  group_by(PY) %>%
  summarize(cur_group_rows()[1])
## # A tibble: 113 x 2
##       PY `cur_group_rows()[1]`
##    <dbl>                 <int>
##  1  1830                113846
##  2  1832                113890
##  3  1833                113879
##  4  1836                113827
##  5  1842                113769
##  6  1845                113882
##  7  1857                113803
##  8  1864                113838
##  9  1874                113544
## 10  1876                113787
## # i 103 more rows
cp_tibble %>%
  group_by(PY) %>%
  summarize(cur_group_rows()[c(1, n())])
## Warning: Returning more (or less) than 1 row per `summarise()` group was deprecated in
## dplyr 1.1.0.
## i Please use `reframe()` instead.
## i When switching from `summarise()` to `reframe()`, remember that `reframe()`
##   always returns an ungrouped data frame and adjust accordingly.
## Call `lifecycle::last_lifecycle_warnings()` to see where this warning was
## generated.
## `summarise()` has grouped output by 'PY'. You can override using the `.groups`
## argument.
## # A tibble: 226 x 2
## # Groups:   PY [113]
##       PY `cur_group_rows()[c(1, n())]`
##    <dbl>                         <int>
##  1  1830                        113846
##  2  1830                        113846
##  3  1832                        113890
##  4  1832                        113890
##  5  1833                        113879
##  6  1833                        113879
##  7  1836                        113827
##  8  1836                        113888
##  9  1842                        113769
## 10  1842                        113885
## # i 216 more rows
…
Handle list-columns by group

# R using Tibbles

cp_tibble %>%
  group_by(PY) %>%
  summarise(list(cited))
## # A tibble: 113 x 2
##       PY `list(cited)`
##    <dbl> <list>       
##  1  1830 <dbl [1]>    
##  2  1832 <dbl [1]>    
##  3  1833 <dbl [1]>    
##  4  1836 <dbl [3]>    
##  5  1842 <dbl [2]>    
##  6  1845 <dbl [1]>    
##  7  1857 <dbl [1]>    
##  8  1864 <dbl [1]>    
##  9  1874 <dbl [2]>    
## 10  1876 <dbl [1]>    
## # i 103 more rows

cp_tibble %>%
  group_by(PY) %>%
  group_nest()
## # A tibble: 113 x 2
##       PY                data
##    <dbl> <list<tibble[,20]>>
##  1  1830            [1 x 20]
##  2  1832            [1 x 20]
##  3  1833            [1 x 20]
##  4  1836            [3 x 20]
##  5  1842            [2 x 20]
##  6  1845            [1 x 20]
##  7  1857            [1 x 20]
##  8  1864            [1 x 20]
##  9  1874            [2 x 20]
## 10  1876            [1 x 20]
## # i 103 more rows
…
mcp_tibble <- cp_tibble %>% 
  rowwise() %>%
  mutate(pubtype = clean_pubtype(pubtype)) %>% 
  separate_rows(pubtype,sep = '", "') %>% 
  mutate(pubtype = gsub('["]','',pubtype))

mcp_tibble <- mcp_tibble %>%
  select(pmid, pubtype) %>%
  group_by(pmid) %>% 
  count(pubtype)

mcp_tibble
## # A tibble: 258,370 x 3
## # Groups:   pmid [113,917]
##    pmid     pubtype                                  n
##    <chr>    <chr>                                <int>
##  1 10022847 JOURNAL ARTICLE                          1
##  2 10022847 RESEARCH SUPPORT, NONU.S. GOV'T          1
##  3 10022847 RESEARCHARTICLE                          1
##  4 10023135 JOURNAL ARTICLE                          1
##  5 10023135 RESEARCH SUPPORT, NONU.S. GOV'T          1
##  6 10023135 RESEARCHARTICLE                          1
##  7 10023767 JOURNAL ARTICLE                          1
##  8 10023767 RESEARCH SUPPORT, NONU.S. GOV'T          1
##  9 10023767 RESEARCH SUPPORT, U.S. GOV'T, P.H.S.     1
## 10 10023767 RESEARCHARTICLE                          1
## # i 258,360 more rows
…
covid_papers <- read_csv("data/covid_papers.csv")
## Rows: 148916 Columns: 19
## -- Column specification --------------------------------------------------------
## Delimiter: ","
## chr  (17): _id, pmid, pmcid, doi, title, source, year_pub, month_pub, author...
## dbl   (1): cited
## date  (1): creation
## 
## i Use `spec()` to retrieve the full column specification for this data.
## i Specify the column types or set `show_col_types = FALSE` to quiet this message.

covid_papers
## # A tibble: 148,916 x 19
##    `_id`            pmid  pmcid doi   title source year_pub month_pub creation  
##    <chr>            <chr> <chr> <chr> <chr> <chr>  <chr>    <chr>     <date>    
##  1 5f69d6fa65a250f~ 3283~ PMC7~ 10.1~ The ~ MED    2020     null      2020-08-25
##  2 5f69d6fa65a250f~ 3219~ PMC7~ 10.1~ Hypo~ MED    2020     null      2020-03-21
##  3 5f69d6fa65a250f~ 3277~ PMC7~ 10.1~ The ~ MED    2020     null      2020-08-12
##  4 5f69d6fa65a250f~ 3273~ PMC7~ 10.1~ A co~ MED    2020     null      2020-07-31
##  5 5f69d6fa65a250f~ null  null  10.2~ Viri~ PPR    2020     null      2020-08-16
##  6 5f69d6fa65a250f~ null  PMC7~ null  Inte~ PMC    2020     null      2020-09-13
##  7 5f69d6fa65a250f~ 3239~ PMC7~ 10.1~ A gl~ MED    2020     null      2020-05-13
##  8 5f69d6fa65a250f~ 3225~ PMC7~ 10.1~ COVI~ MED    2020     null      2020-04-08
##  9 5f69d6fa65a250f~ 3272~ PMC7~ 10.1~ The ~ MED    2020     null      2020-07-29
## 10 5f69d6fa65a250f~ 3219~ PMC7~ 10.1~ Labo~ MED    2020     null      2020-03-21
## # i 148,906 more rows
## # i 10 more variables: authors_gender <chr>, journal <chr>, language <chr>,
## #   pubmodel <chr>, pubtype <chr>, mesh <chr>, keywords <chr>, cited <dbl>,
## #   has_data <chr>, oa <chr>
…
